{
  "project_info": {
    "project_number": "332201257389",
    "firebase_url": "https://catpet-a0314.firebaseio.com",
    "project_id": "catpet-a0314",
    "storage_bucket": "catpet-a0314.appspot.com"
  },
  "client": [
    {
      "client_info": {
        "mobilesdk_app_id": "1:332201257389:android:d59ba5acac9a9215abd924",
        "android_client_info": {
          "package_name": "com.example.catpet"
        }
      },
      "oauth_client": [
        {
          "client_id": "332201257389-oargenr8ndnfnu0ntefqohqit8m3tb8n.apps.googleusercontent.com",
          "client_type": 3
        }
      ],
      "api_key": [
        {
          "current_key": "AIzaSyDGMIukbeXU3bzHFADWLXaDwdsJFefAMBY"
        }
      ],
      "services": {
        "appinvite_service": {
          "other_platform_oauth_client": [
            {
              "client_id": "332201257389-oargenr8ndnfnu0ntefqohqit8m3tb8n.apps.googleusercontent.com",
              "client_type": 3
            }
          ]
        }
      }
    }
  ],
  "configuration_version": "1"
}